127.0.0.1 - - [05/Jan/2024:10:41:26 +0530] "GET / HTTP/1.1" 404 751
0:0:0:0:0:0:0:1 - - [05/Jan/2024:10:41:26 +0530] "GET /EmpWebApp/Register.html HTTP/1.1" 200 1046
0:0:0:0:0:0:0:1 - - [05/Jan/2024:10:41:26 +0530] "GET /favicon.ico HTTP/1.1" 404 762
0:0:0:0:0:0:0:1 - - [05/Jan/2024:10:42:15 +0530] "POST /EmpWebApp/RegisterServlet HTTP/1.1" 200 659
0:0:0:0:0:0:0:1 - - [05/Jan/2024:10:43:26 +0530] "POST /EmpWebApp/LoginServlet HTTP/1.1" 200 230
127.0.0.1 - - [05/Jan/2024:11:10:20 +0530] "GET / HTTP/1.1" 404 751
0:0:0:0:0:0:0:1 - - [05/Jan/2024:11:10:20 +0530] "GET /EmpWebApp/Login.html HTTP/1.1" 200 527
0:0:0:0:0:0:0:1 - - [05/Jan/2024:11:10:22 +0530] "GET /EmpWebApp/Register.html HTTP/1.1" 304 -
0:0:0:0:0:0:0:1 - - [05/Jan/2024:11:10:33 +0530] "POST /EmpWebApp/LoginServlet HTTP/1.1" 200 643
0:0:0:0:0:0:0:1 - - [05/Jan/2024:11:10:42 +0530] "POST /EmpWebApp/LoginServlet HTTP/1.1" 200 211
0:0:0:0:0:0:0:1 - - [05/Jan/2024:11:12:08 +0530] "GET /EmpWebApp/LogoutServlet HTTP/1.1" 200 527
127.0.0.1 - - [05/Jan/2024:12:11:37 +0530] "GET / HTTP/1.1" 404 751
0:0:0:0:0:0:0:1 - - [05/Jan/2024:12:11:45 +0530] "GET /EmpWebApp/Login.html HTTP/1.1" 304 -
0:0:0:0:0:0:0:1 - - [05/Jan/2024:12:11:45 +0530] "GET /favicon.ico HTTP/1.1" 404 762
0:0:0:0:0:0:0:1 - - [05/Jan/2024:12:12:12 +0530] "POST /EmpWebApp/LoginServlet HTTP/1.1" 200 643
0:0:0:0:0:0:0:1 - - [05/Jan/2024:12:12:22 +0530] "POST /EmpWebApp/LoginServlet HTTP/1.1" 200 231
127.0.0.1 - - [05/Jan/2024:12:24:54 +0530] "GET / HTTP/1.1" 404 751
0:0:0:0:0:0:0:1 - - [05/Jan/2024:12:24:54 +0530] "GET /EmpWebApp/Login.html HTTP/1.1" 304 -
0:0:0:0:0:0:0:1 - - [05/Jan/2024:12:25:06 +0530] "POST /EmpWebApp/LoginServlet HTTP/1.1" 200 230
127.0.0.1 - - [05/Jan/2024:12:30:16 +0530] "GET / HTTP/1.1" 404 751
0:0:0:0:0:0:0:1 - - [05/Jan/2024:12:30:23 +0530] "POST /EmpWebApp/LoginServlet HTTP/1.1" 200 314
0:0:0:0:0:0:0:1 - - [05/Jan/2024:12:30:26 +0530] "GET /EmpWebApp/GetAllEmpsServlet HTTP/1.1" 200 878
127.0.0.1 - - [05/Jan/2024:12:49:52 +0530] "GET / HTTP/1.1" 404 751
0:0:0:0:0:0:0:1 - - [05/Jan/2024:12:49:53 +0530] "GET /EmpWebApp/Login.html HTTP/1.1" 304 -
0:0:0:0:0:0:0:1 - - [05/Jan/2024:12:50:00 +0530] "POST /EmpWebApp/LoginServlet HTTP/1.1" 200 337
0:0:0:0:0:0:0:1 - - [05/Jan/2024:12:50:03 +0530] "GET /EmpWebApp/GetAllEmpsServlet HTTP/1.1" 200 901
0:0:0:0:0:0:0:1 - - [05/Jan/2024:12:50:09 +0530] "GET /EmpWebApp/GetEmpById.html HTTP/1.1" 200 399
0:0:0:0:0:0:0:1 - - [05/Jan/2024:12:50:14 +0530] "POST /EmpWebApp/GetEmpByIdServlet HTTP/1.1" 200 592
0:0:0:0:0:0:0:1 - - [05/Jan/2024:12:50:22 +0530] "POST /EmpWebApp/GetEmpByIdServlet HTTP/1.1" 200 424
0:0:0:0:0:0:0:1 - - [05/Jan/2024:12:51:02 +0530] "GET /EmpWebApp/GetEmpById.html HTTP/1.1" 304 -
0:0:0:0:0:0:0:1 - - [05/Jan/2024:12:51:08 +0530] "POST /EmpWebApp/GetEmpByIdServlet HTTP/1.1" 200 590
0:0:0:0:0:0:0:1 - - [05/Jan/2024:12:51:16 +0530] "GET /EmpWebApp/GetAllEmpsServlet HTTP/1.1" 200 901
0:0:0:0:0:0:0:1 - - [05/Jan/2024:12:51:18 +0530] "GET /EmpWebApp/Logout HTTP/1.1" 404 771
0:0:0:0:0:0:0:1 - - [05/Jan/2024:12:51:28 +0530] "GET /EmpWebApp/Logout HTTP/1.1" 404 771
0:0:0:0:0:0:0:1 - - [05/Jan/2024:12:54:35 +0530] "GET /EmpWebApp/GetAllEmpsServlet HTTP/1.1" 200 908
0:0:0:0:0:0:0:1 - - [05/Jan/2024:12:54:37 +0530] "GET /EmpWebApp/LogoutServlet HTTP/1.1" 304 -
127.0.0.1 - - [05/Jan/2024:13:13:36 +0530] "GET / HTTP/1.1" 404 751
0:0:0:0:0:0:0:1 - - [05/Jan/2024:13:13:37 +0530] "GET /EmpWebApp/Login.html HTTP/1.1" 304 -
0:0:0:0:0:0:0:1 - - [05/Jan/2024:13:13:43 +0530] "POST /EmpWebApp/LoginServlet HTTP/1.1" 200 337
0:0:0:0:0:0:0:1 - - [05/Jan/2024:13:13:46 +0530] "GET /EmpWebApp/GetAllEmps HTTP/1.1" 404 775
0:0:0:0:0:0:0:1 - - [05/Jan/2024:13:13:50 +0530] "GET /EmpWebApp/GetEmpById.html HTTP/1.1" 304 -
0:0:0:0:0:0:0:1 - - [05/Jan/2024:13:13:56 +0530] "POST /EmpWebApp/GetEmpByIdServlet HTTP/1.1" 200 590
0:0:0:0:0:0:0:1 - - [05/Jan/2024:13:14:35 +0530] "POST /EmpWebApp/GetEmpByIdServlet HTTP/1.1" 200 590
0:0:0:0:0:0:0:1 - - [05/Jan/2024:13:14:43 +0530] "GET /EmpWebApp/GetAllEmps HTTP/1.1" 404 775
0:0:0:0:0:0:0:1 - - [05/Jan/2024:13:14:49 +0530] "POST /EmpWebApp/LoginServlet HTTP/1.1" 200 344
0:0:0:0:0:0:0:1 - - [05/Jan/2024:13:14:51 +0530] "GET /EmpWebApp/GetAllEmpsServlet HTTP/1.1" 200 906
0:0:0:0:0:0:0:1 - - [05/Jan/2024:13:15:17 +0530] "GET /EmpWebApp/LogoutServlet HTTP/1.1" 304 -
127.0.0.1 - - [05/Jan/2024:13:17:38 +0530] "GET / HTTP/1.1" 404 751
0:0:0:0:0:0:0:1 - - [05/Jan/2024:13:18:00 +0530] "POST /EmpWebApp/LoginServlet HTTP/1.1" 200 230
0:0:0:0:0:0:0:1 - - [05/Jan/2024:13:18:09 +0530] "GET /EmpWebApp/Register.html HTTP/1.1" 304 -
0:0:0:0:0:0:0:1 - - [05/Jan/2024:13:18:35 +0530] "POST /EmpWebApp/RegisterServlet HTTP/1.1" 200 659
0:0:0:0:0:0:0:1 - - [05/Jan/2024:13:18:42 +0530] "POST /EmpWebApp/LoginServlet HTTP/1.1" 200 231
